{
  "model": "Students",
  "settings": {
    "i18n": {
      "el": {
        "SSN": "ΑΜΚΑ",
        "SSN country of issue": "Χώρα έκδοσης ΑΜΚΑ",
        "Set the student's given name": "Ορίστε το όνομα του σπουδαστή",
        "Set the student's family name": "Ορίστε το επώνυμο του σπουδαστή",
        "Set the given name of the student's father": "Ορίστε το πατρώνυμο του σπουδαστή",
        "Set the given name of the student's mother": "Ορίστε το μητρώνυμο του σπουδαστή",
        "Select the student's status. By default the new student will become active.": "Επιλέξτε την κατάσταση του σπουδαστή. Ως προεπιλογή, ο νέος σπουδαστής θα είναι ενεργός.",
        "Select the academic year the student was enrolled. It defaults to the current academic year": "Επιλέξτε το ακαδημαϊκό έτος εγγραφής. Ως προεπιλογή ορίζεται το τρέχον ακαδημαϊκό έτος",
        "Select the academic cycle the student was enrolled. It defaults to the current academic cycle": "Επιλέξτε τον ακαδημαϊκό κύκλο εγγραφής. Ως προεπιλογή ορίζεται ο τρέχων ακαδημαϊκός κύκλος",
        "Select the semester the student is being enrolled to.": "Επιλέξτε τον κύκλο εγγραφής του σπουδαστή.",
        "Select the full date the student is being enrolled. It defaults to the current date": "Επιλέξτε την πλήρη ημερομηνία εγγραφής του σπουδαστή. Ως προεπιλογή ορίζεται η σημερινή ημερομηνία.",
        "Set the descending index the student got inscribed. This field can only contain numeric values": "Ορίστε τον φθίνον αριθμό εισαγωγής του σπουδαστή. Το πεδίο μπορεί να περιέχει μόνο αριθμητικές τιμές.",
        "This is the number of credits the student gathered. This field can only contain numeric values": "Είναι ο αριθμός των μορίων που συγκέντρωσε ο σπουδαστής κατά την διαδικασία εισαγωγής του. Το πεδίο αυτό μπορεί να περιέχει μόνο αριθμητικές τιμές.",
        "Select the department of the student. It defaults to your current department": "Επιλέξτε το τμήμα που ανήκει. Ως προεπιλογή ορίζεται το τρέχον τμήμα σας.",
        "Select the study program the student will be admitted to. This will determine the courses available to the student, the graduation title and the available specialties. It defaults to the last active study program" : "Επιλέξτε το πρόγραμμα σπουδών στο οποίο φοιτά ο σπουδαστής. Αυτό θα καθορίσει τις διδακτικές ενότητες που θα είναι διαθέσιμες στον σπουδαστή, τον τίτλο διπλώματος και τις διαθέσιμες κατευθύνσεις. Ως προεπιλογή ορίζεται το τελευταίο ενεργό πρόγραμμα σπουδών",
        "Select the specialty of the student. You can only select specialties defined in the study program the student is admitted to.": "Επιλέξτε την κατεύθυνση του σπουδαστή. Μπορείτε να επιλέξετε μόνο κατευθύνσεις που έχουν οριστεί στο πρόγραμμα σπουδών που φοιτά ο σπουδαστής.",
        "Inscription Cycle": "Κύκλος εγγραφής"
      }
    }
  },
  "components": [
    {
      "key": "fieldset",
      "type": "fieldset",
      "input": false,
      "components": [
        {
          "columns": [
            {
              "components": [
                {
                  "label": "Given Name",
                  "key": "person.givenName",
                  "labelPosition": "top",
                  "dataSrc": "url",
                  "widget": {
                    "type": "input"
                  },
                  "validate": {
                    "required": true
                  },
                  "type": "textfield",
                  "input": true,
                  "description": "Set the student's given name"
                }
              ],
              "width": 3,
              "offset": 0,
              "push": 0,
              "pull": 0
            },
            {
              "components": [
                {
                  "label": "Family Name",
                  "labelPosition": "top",
                  "widget": "choicesjs",
                  "dataSrc": "url",
                  "selectValues": "value",
                  "key": "person.familyName",
                  "type": "textfield",
                  "input": true,
                  "validate": {
                    "required": true
                  },
                  "description": "Set the student's family name"
                }
              ],
              "width": 3,
              "offset": 0,
              "push": 0,
              "pull": 0
            },
            {
              "components": [
                {
                  "label": "Father's Name",
                  "key": "person.fatherName",
                  "labelPosition": "top",
                  "widget": "choicesjs",
                  "dataSrc": "url",
                  "selectValues": "value",
                  "type": "textfield",
                  "input": true,
                  "validate": {
                    "required": false
                  },
                  "description": "Set the given name of the student's father"
                }
              ],
              "width": 3,
              "offset": 0,
              "push": 0,
              "pull": 0
            },
            {
              "components": [
                {
                  "label": "Mother's Name",
                  "key": "person.motherName",
                  "labelPosition": "top",
                  "widget": {
                    "type": "input"
                  },
                  "type": "textfield",
                  "input": true,
                  "validate": {
                    "required": false
                  },
                  "description": "Set the given name of the student's mother"
                }
              ],
              "width": 3,
              "offset": 0,
              "push": 0,
              "pull": 0
            },
            {
              "components": [
                {
                  "label": "Status",
                  "labelPosition": "top",
                  "widget": "choicesjs",
                  "dataSrc": "url",
                  "data": {
                    "url": "StudentStatuses?$orderby=name",
                    "headers": []
                  },
                  "template": "{{ item.name }}",
                  "selectValues": "value",
                  "key": "studentStatus",
                  "valueProperty": "id",
                  "searchEnabled": false,
                  "type": "select",
                  "input": true,
                  "lazyLoad": false,
                  "defaultValue": "1",
                  "disabled": true,
                  "validate": {
                    "required": true
                  },
                  "description": "",
                  "hidden": false
                }
              ],
              "width": 3,
              "offset": 0,
              "push": 0,
              "pull": 0
            },
            {
              "components": [
                {
                  "label": "Nationality",
                  "labelPosition": "top",
                  "dataSrc": "url",
                  "data": {
                    "url": "Nationalities?$top={{limit}}&$skip={{skip}}&$select=id,name&$filter=indexof(name, '{{encodeURIComponent(search||'')}}') ge 0&$orderby=name",
                    "headers": []
                  },
                  "limit": 200,
                  "template": "{{ item.name }}",
                  "key": "person.nationality",
                  "type": "select",
                  "input": true,
                  "selectValues": "value",
                  "valueProperty": "id",
                  "widget": "choicesjs",
                  "validate": {
                    "required": false
                  },
                  "dataType": "object",
                  "idPath": "id",
                  "searchField": "search",
                  "searchFields": [
                    "value.id",
                    "value.name"
                  ],
                  "searchThreshold": "0.3",
                  "lazyLoad": true,
                  "searchEnabled": true
                }
              ],
              "width": 3,
              "offset": 0,
              "push": 0,
              "pull": 0
            },
            {
              "components": [
                {
                  "label": "Birth Date",
                  "labelPosition": "top",
                  "spellcheck": true,
                  "enableTime": false,
                  "customOptions": {
                    "dateFormat": "yyyy-MM-dd",
                    "allowInput": true
                  },
                  "widget": {
                    "type": "calendar"
                  },
                  "key": "person.birthDate",
                  "type": "datetime",
                  "format": "dd/MM/yyyy",
                  "input": true
                }
              ],
              "width": 3,
              "offset": 0,
              "push": 0,
              "pull": 0
            },
            {
              "components": [
                {
                  "label": "SSN",
                  "labelPosition": "top",
                  "key": "person.SSN",
                  "widget": {
                    "type": "input"
                  },
                  "type": "textfield",
                  "input": true,
                  "validate": {
                    "required": false
                  }
                }
              ],
              "width": 3,
              "offset": 0,
              "push": 0,
              "pull": 0
            },
            {
              "components": [
                {
                  "type": "select",
                  "label": "SSN country of issue",
                  "key": "person.SSNCountry",
                  "input": true,
                  "dataSrc": "url",
                  "data": {
                    "url": "Countries?$top={{limit}}&$skip={{skip}}&$select=id,name&$filter=indexof(name, '{{encodeURIComponent(search||'')}}') ge 0&$orderby=name",
                    "headers": []
                  },
                  "template": "{{ item.name }}",
                  "selectValues": "value",
                  "validate": {
                    "required": false
                  },
                  "limit": 15,
                  "dataType": "object",
                  "idPath": "id",
                  "searchField": "search",
                  "searchFields": [
                    "value.id",
                    "value.name"
                  ],
                  "searchThreshold": "0.3",
                  "lazyLoad": true,
                  "searchEnabled": true
                }
              ],
              "width": 3,
              "offset": 0,
              "push": 0,
              "pull": 0
            },
            {
              "components": [
                {
                  "label": "Student Number",
                  "key": "studentIdentifier",
                  "labelPosition": "top",
                  "type": "textfield",
                  "input": true,
                  "validate": {
                    "required": false,
                    "maxLength": 20
                  }
                }
              ],
              "width": 3,
              "offset": 0,
              "push": 0,
              "pull": 0
            },
            {
              "components": [
                {
                  "label": "Gender",
                  "labelPosition": "top",
                  "dataSrc": "url",
                  "data": {
                    "url": "Genders?$filter=identifier ne null",
                    "headers": []
                  },
                  "template": "{{ item.name }}",
                  "key": "person.gender",
                  "type": "select",
                  "input": true,
                  "selectValues": "value",
                  "valueProperty": "identifier",
                  "widget": "choicesjs",
                  "searchEnabled": false,
                  "validate": {
                    "required": true
                  }
                }
              ],
              "width": 3,
              "offset": 0,
              "push": 0,
              "pull": 0
            },
            {
              "components": [
                {
                  "label": "Study Program",
                  "labelPosition": "top",
                  "dataSrc": "url",
                  "data": {
                    "url": "StudyPrograms/?$filter=department eq '{{data.department.id}}' and isActive eq 1&$orderby id descending",
                    "headers": []
                  },
                  "template": "{{ item.name }}",
                  "key": "studyProgram",
                  "type": "select",
                  "input": true,
                  "selectValues": "value",
                  "widget": "choicesjs",
                  "searchEnabled": false,
                  "validate": {
                    "required": true
                  },
                  "description": "Select the study program the student will be admitted to. This will determine the courses available to the student, the graduation title, the available specialties and the study semesters. It defaults to the last active study program"
                }
              ],
              "width": 6,
              "offset": 0,
              "push": 0,
              "pull": 0
            }
          ],
          "customClass": "text-dark",
          "type": "columns",
          "input": false
        }
      ]
    },
    {
      "legend": "Inscription Information",
      "key": "fieldset",
      "type": "fieldset",
      "input": false,
      "components": [
        {
          "columns": [
            {
              "components": [
                {
                  "label": "Inscription Year",
                  "labelPosition": "top",
                  "key": "inscriptionYear",
                  "dataType": "object",
                  "dataPath": "id",
                  "validate": {
                    "required": true
                  },
                  "type": "select",
                  "searchEnabled": false,
                  "dataSrc": "url",
                  "data": {
                    "url": "AcademicYears/?$select=id,name,alternateName&$top={{limit}}&$skip={{skip}}&$orderby=id desc",
                    "headers": []
                  },
                  "limit": 20,
                  "template": "{{ item.name }}",
                  "input": true,
                  "lazyLoad": true,
                  "selectValues": "value",
                  "widget": "choicesjs",
                  "description": "Select the academic year the student was enrolled. It defaults to the current academic year"
                }
              ],
              "width": 3,
              "offset": 0,
              "push": 0,
              "pull": 0
            },
            {
              "components": [
                {
                  "label": "Inscription Cycle",
                  "labelPosition": "top",
                  "widget": "choicesjs",
                  "dataSrc": "url",
                  "data": {
                    "url": "AcademicPeriods/?$select=id,name",
                    "headers": []
                  },
                  "template": "{{ item.locale.name || item.name }}",
                  "selectValues": "value",
                  "key": "inscriptionPeriod",
                  "dataType": "object",
                  "dataPath": "id",
                  "validate": {
                    "required": true
                  },
                  "type": "select",
                  "input": true,
                  "searchEnabled": false,
                  "description": "Select the academic cycle the student was enrolled. It defaults to the current academic cycle"
                }
              ],
              "width": 3,
              "offset": 0,
              "push": 0,
              "pull": 0
            },
            {
              "components": [
                {
                  "label": "Inscription date",
                  "labelPosition": "top",
                  "enableTime": false,
                  "customOptions": {
                    "dateFormat": "yyyy-MM-dd",
                    "allowInput": true
                  },
                  "widget": {
                    "type": "calendar"
                  },
                  "validate": {
                    "required": true
                  },
                  "type": "datetime",
                  "format": "dd/MM/yyyy",
                  "input": true,
                  "key": "inscriptionDate",
                  "description": "Select the full date the student is being enrolled. It defaults to the current date"
                }
              ],
              "width": 3,
              "offset": 0,
              "push": 0,
              "pull": 0
            },
            {
              "components": [
                {
                  "label": "Inscription mode",
                  "widget": "choicesjs",
                  "dataSrc": "url",
                  "labelPosition": "top",
                  "searchEnabled": true,
                  "data": {
                    "values": [],
                    "url": "/InscriptionModes?$orderby=name&$top={{limit}}&$skip={{skip}}",
                    "headers": []
                  },
                  "validate": {
                    "required": true
                  },
                  "lazyLoad": false,
                  "limit": 50,
                  "dataType": "object",
                  "idPath": "id",
                  "template": "{{ item.name }}",
                  "selectThreshold": 0.3,
                  "key": "inscriptionMode",
                  "type": "select",
                  "selectValues": "value",
                  "input": true,
                  "disabled": false
                }
              ],
              "width": 6,
              "offset": 0,
              "push": 0,
              "pull": 0
            },
            {
              "components": [
                {
                  "label": "Inscription Comments",
                  "labelPosition": "top",
                  "widget": "choicesjs",
                  "selectValues": "value",
                  "key": "inscriptionComments",
                  "type": "textarea",
                  "rows": 3,
                  "input": true,
                  "searchEnabled": false,
                  "validate": {
                    "required": false
                  }
                }
              ],
              "width": 12,
              "offset": 0,
              "push": 0,
              "pull": 0
            }
          ],
          "customClass": "text-dark",
          "hideLabel": true,
          "type": "columns",
          "input": false
        }
      ]
    },
    {
      "type": "button",
      "theme": "btn btn-indigo",
      "label": "Submit",
      "key": "submit",
      "disableOnInvalid": true,
      "input": true
    },
    {
      "components": [
        {
          "input": true,
          "label": "Cancel",
          "tableView": false,
          "key": "cancel",
          "action": "event",
          "disableOnInvalid": false,
          "theme": "secondary",
          "type": "button",
          "event": "cancelEvent",
          "redirect": "/students/",
          "customClass": "pull-right float-right mr-0"
        }
      ],
      "width": 6
    }
  ]
}
