{
    "title": "PayActions",
    "model": "PayActions",
    "searchExpression":"indexof(name, '${text}') ge 0 or indexof(studyLevel/name, '${text}') ge 0",
    "columns": [
      {
        "name":"id",
        "property": "id",
        "title":"StudyPrograms.Name"
      }
    ],
    "defaults":{
      "filter": ""
    },
    "criteria": [

    ],
    "paths" : [
      {
        "name": "PayActions.PaymentRequests.Processing",
        "alternateName": "list/processing",
        "show": true,
        "filter": {
          "isActive": true
        }
      },
      {
          "name": "PayActions.PaymentRequests.All",
          "show": true,
          "alternateName": "list/all",
          "filter": { }
      }
    ]
  }
