{
  "title": "CourseClasses",
  "model": "CourseClasses",
  "searchExpression":"indexof(title, '${text}') ge 0 or indexof(course/displayCode, '${text}') ge 0 or indexof(year/alternateName, '${text}') ge 0 ",
  "selectable": true,
  "multipleSelect": true,
  "columns": [
    {
      "name": "id",
      "property": "id",
      "formatter": "ButtonFormatter",
      "formatString": "#/classes/${id}",
      "className": "text-center",
      "formatOptions": {
        "buttonContent": "<i class=\"far fa-eye text-indigo\"></i>",
        "buttonClass": "btn btn-default",
        "commands": [ ".", "${encodeURIComponent(id)}"],
        "navigationExtras": {
          "replaceUrl": false,
          "skipLocationChange": true
        }
      }
    },
    {
      "name":"course/displayCode",
      "property":"displayCode",
      "title":"Classes.DisplayCode"
    },
    {
      "name":"title",
      "property": "title",
      "title":"Classes.ClassTitle"
    },
    {
      "name":"year/alternateName",
      "property": "academicYear",
      "title":"Classes.AcademicYear"
    },
    {
      "name":"period/locale/name",
      "property": "period",
      "title":"Classes.Period"
    },
    {
      "name":"numberOfStudents",
      "property": "numberOfStudents",
      "hidden": true,
      "title":"Classes.NumberOfStudents"
    },
    {
      "name":"statistic/examined",
      "property": "examined",
      "hidden": true,
      "title":"Classes.NumberOfStudentsExamined"
    },
    {
      "name":"statistic/passed",
      "property": "passed",
      "hidden": true,
      "title":"Classes.NumberOfStudentsPassed"
    },
    {
      "name":"statistic/hasRules",
      "property": "hasRules",
      "hidden": true,
      "title":"Classes.hasRules",
      "formatters": [
        {
          "formatter": "TranslationFormatter",
          "formatString": "${value != null ? (value?'Yes':'No'):'-'}"
        },

        {
          "formatter": "NgClassFormatter",
          "formatOptions": {
            "ngClass": {
              "text-secondary": "${hasRules==null}",
              "text-success": "${!!hasRules}",
              "text-danger": "${!hasRules}"
            }
          }
        }
      ]
    },
    {
      "name":"weekHours",
      "property": "weekHours",
      "title":"Classes.WeekHours",
      "hidden": true
    },
    {
      "name":"totalHours",
      "property": "totalHours",
      "title":"Classes.TotalHours",
      "hidden": true
    },
    {
      "name":"status/alternateName",
      "property": "status",
      "title":"Classes.ClassStatus",
      "formatters": [
        {
          "formatter": "TranslationFormatter",
          "formatString": "ClassStatuses.${value}"
        }
      ]
    },
    {
      "name":"year",
      "property": "year",
      "hidden": true
    },
    {
      "name":"period",
      "property": "academicPeriod",
      "hidden": true
    },
    {
      "name": "Instructors",
      "property": "instructors",
      "virtual": true,
      "sortable": false,
      "title": "Classes.Instructors",
      "formatters": [
        {
          "formatter": "TemplateFormatter",
          "formatString": "${instructors.length ? instructors.map(x => x.instructor && (x.instructor.familyName + ' ' + x.instructor.givenName)).join(', ') : '-'}"
        }
      ]
    },
    {
      "name":"course",
      "title":"Classes.Course",
      "hidden": true
    }
  ],
  "defaults":{
    "filter": "(department eq ${currentDepartment} and period eq ${currentPeriod} and year eq ${currentYear})",
    "orderBy": "year desc,period desc,title asc",
    "expand": "instructors($expand=instructor)"
  },
  "criteria": [
    {
      "name": "title",
      "filter": "(indexof(title, '${value}') ge 0)",
      "type": "text"
    },
    {
      "name": "maxNumberOfStudents",
      "filter": "${value >=1 ? '(maxNumberOfStudents gt 0)': '(maxNumberOfStudents eq null or maxNumberOfStudents le 0)'}",
      "type": "text",
      "title":  "Classes.MaxNumberOfStudents"
    },
    {
      "name": "displayCode",
      "filter": "(indexof(course/displayCode, '${value}') ge 0)",
      "type": "text"
    },
    {
      "name": "yearId",
      "filter": "(year/id eq '${value}')",
      "type": "text"
    },
    {
      "name": "period",
      "filter": "(period/alternateName eq '${value}')",
      "type": "text"
    },
    {
      "name": "currentYear",
      "filter": "(year eq '${currentYear}')",
      "type": "text"
    },
    {
      "name": "status",
      "filter": "(status/alternateName eq '${value}')",
      "type": "text"
    },
    {
      "name": "hasRules",
      "filter": "(statistic/hasRules eq '${value}')",
      "type": "text"
    },
    {
      "name": "registrationType",
      "filter": "(statistic/registrationType eq '${value}')",
      "type": "text"
    }
  ],
  "searches" : [
    {
      "name": "AdvancedSearch.PreDefinedLists.openClasses",
      "filter": {
        "courseClassStatus": "open"
      }
    }
  ]
}
