{
    "model": "CourseExams",
    "settings": {
      "i18n": {
        "el": {
          "This is the display code of the course this class is linked with": "Αυτός είναι ο κωδικός εμφάνισης της διδακτικής ενότητας που είναι συνδεδεμένη η τάξη αυτή",
          "This is the name of the course this class is linked with.": "Αυτό είναι το όνομα της διδακτικής ενότητας που είναι συνδεδεμένη η τάξη αυτή.",
          "Edit the display name of this exam": "Ορίστε το όνομα εμφάνισης της εξέτασης αυτής",
          "Edit the period this exam is taking place in.": "Ορίστε την περίοδο που διεξάγεται.",
          "Edit the year this exam is taking place in.": "Ορίστε το έτος που διεξάγεται.",
          "Edit the date this exam was closed.": "Ορίστε την ημερομηνία που έκλεισε η εξέταση.",
          "Edit the user who closed this exam.": "Ορίστε τον χρήστη που την έκλεισε.",
          "Edit the full date students took the exam.": "Ορίστε την πλήρη ημερομηνία που εξετάστηκαν οι σπουδαστές.",
          "Edit the full date of the announcement of the grades. This field is optional": "Ορίστε την πλήρη ημερομηνία της ανακοίνωσης των βαθμών. Το πεδίο αυτό είναι προαιρετικό",
          "Edit the decimal points accepted in the grades of this exam. It must be equal or greater than 0 and equal or smaller than 3.": "Ορίστε τον αριθμό των δεκαδικών ψηφίων που δέχονται οι βαθμοί της εξέτασης. Πρέπει να είναι μεγαλύτερό ή ίσο του 0 και μικρότερο του 3.",
          "Edit the number of students that were graded. This should be equal or smaller than the number of students that took the exam.": "Ορίστε τον αριθμών των σπουδαστών που βαθμολογήθηκαν. Πρέπει να είναι ίσο ή μικρότερο του αριθμού των σπουδαστών που συμμετείχαν στην εξέταση.",
          "Status": "Κατάσταση εξέτασης",
          "Course ID": "Κωδικός εμφάνισης διδακτικής ενότητας"
        },
        "en": {
          "Status": "Exam Status",
          "Course ID": "Course display code"
        }
      }
    },
    "components": [
        {
            "legend": "Exam Information",
            "key": "fieldSet",
            "type": "fieldset",
            "input": false,
            "label": "Exam Information",
            "components": [
              {
                "columns": [
                    {
                        "components": [
                            {
                                "label": "Course ID",
                                "labelPosition": "top",
                                "widget": {
                                    "type": "input"
                                },
                                "validate": {
                                    "required": false
                                },
                                "key": "course.displayCode",
                                "type": "textfield",
                                "input": true,
                                "disabled": true,
                                "description": "This is the display code of the course this class is linked with"
                            }
                        ],
                        "width": 3,
                        "offset": 0,
                        "push": 0,
                        "pull": 0
                    },
                    {
                        "components": [
                            {
                                "label": "Course title",
                                "labelPosition": "top",
                                "widget": {
                                    "type": "input"
                                },
                                "validate": {
                                    "required": false
                                },
                                "key": "course.name",
                                "type": "textfield",
                                "input": true,
                                "disabled": true,
                                "description": "This is the name of the course this class is linked with."
                            }
                        ],
                        "width": 9,
                        "offset": 0,
                        "push": 0,
                        "pull": 0
                    }
                ],
                "customClass": "text-dark",
                "hideLabel": true,
                "type": "columns",
                "input": false
              },
              {
                "columns": [
                    {
                        "components": [
                            {
                              "label": "Status",
                              "labelPosition": "top",
                              "key": "status",
                              "type": "select",
                              "input": true,
                              "dataSrc": "url",
                              "data": {
                                  "url": "CourseExamStatuses",
                                  "headers": []
                              },
                              "template": "<span class='d-block pr-5 text-truncate'>{{ item.alternateName }}</span>",
                              "selectValues": "value",
                              "widget": "choicesjs",
                              "searchEnabled": true,
                              "searchFields":[ "value.name" ],
                              "disabled": true
                            }
                        ],
                        "width": 3,
                        "offset": 0,
                        "push": 0,
                        "pull": 0
                    },
                    {
                        "components": [
                            {
                                "label": "Exam name",
                                "labelPosition": "top",
                                "widget": {
                                    "type": "input"
                                },
                                "validate": {
                                    "required": false
                                },
                                "key": "name",
                                "type": "textfield",
                                "input": true,
                                "description": "Edit the display name of this exam"
                            }
                        ],
                        "width": 9,
                        "offset": 0,
                        "push": 0,
                        "pull": 0
                    }
                ],
                "customClass": "text-dark",
                "hideLabel": true,
                "type": "columns",
                "input": false
              },
              {
                "columns": [
                    {
                        "components": [
                            {
                              "label": "Period",
                              "labelPosition": "top",
                              "widget": {
                                  "type": "input"
                              },
                              "validate": {
                                  "required": false
                              },
                              "key": "examPeriod.name",
                              "type": "textfield",
                              "input": true,
                              "disabled": true,
                              "description": "Edit the period this exam is taking place in."
                            }
                        ],
                        "width": 3,
                        "offset": 0,
                        "push": 0,
                        "pull": 0
                    },
                    {
                      "components": [
                          {
                            "label": "Year",
                            "labelPosition": "top",
                            "widget": {
                                "type": "input"
                            },
                            "validate": {
                                "required": false
                            },
                            "key": "year.name",
                            "type": "textfield",
                            "input": true,
                            "disabled": true,
                            "description": "Edit the year this exam is taking place in."
                          }
                      ],
                      "width": 3,
                      "offset": 0,
                      "push": 0,
                      "pull": 0
                    },
                    {
                        "components": [
                            {
                              "label": "Completion date",
                              "labelPosition": "top",
                              "widget": {
                                  "type": "input"
                              },
                              "validate": {
                                  "required": false
                              },
                              "key": "dateCompleted",
                              "enableTime": false,
                              "type": "datetime",
                              "format": "dd/MM/yyyy",
                              "input": true,
                              "disabled": true,
                              "description": "Edit the date this exam was closed."
                            }
                        ],
                        "width": 3,
                        "offset": 0,
                        "push": 0,
                        "pull": 0
                    },
                    {
                      "components": [
                          {
                            "label": "Completed by",
                            "labelPosition": "top",
                            "widget": {
                                "type": "input"
                            },
                            "validate": {
                                "required": false
                            },
                            "customConditional": "show = !!data.completedByUser",
                            "key": "completedByUser.name",
                            "type": "textfield",
                            "input": true,
                            "disabled": true,
                            "description": "Edit the user who closed this exam."
                          }
                      ],
                      "width": 3,
                      "offset": 0,
                      "push": 0,
                      "pull": 0
                    },
                    {
                        "components": [
                            {
                                "label": "Exam date",
                                "labelPosition": "top",
                                "widget": {
                                    "type": "input"
                                },
                                "validate": {
                                    "required": false
                                },
                                "enableTime": false,
                                "key": "examDate",
                                "type": "datetime",
                                "input": true,
                                "format": "dd/MM/yyyy",
                                "description": "Edit the full date students took the exam."
                            }
                        ],
                        "width": 3,
                        "offset": 0,
                        "push": 0,
                        "pull": 0
                    },
                    {
                        "components": [
                            {
                              "label": "Result date",
                              "labelPosition": "top",
                              "widget": {
                                  "type": "input"
                              },
                              "validate": {
                                  "required": false
                              },
                              "key": "resultDate",
                              "type": "datetime",
                              "input": true,
                              "enableTime": false,
                              "format": "dd/MM/yyyy",
                              "description": "Edit the full date of the announcement of the grades. This field is optional"
                            }
                        ],
                        "width": 3,
                        "offset": 0,
                        "push": 0,
                        "pull": 0
                    },
                    {
                        "components": [
                            {
                              "label": "Decimal digits",
                              "labelPosition": "top",
                              "widget": {
                                  "type": "input"
                              },
                              "validate": {
                                  "required": false,
                                  "integer": true,
                                  "min": 0,
                                  "max": 3
                              },
                              "key": "decimalDigits",
                              "type": "number",
                              "input": true,
                              "description": "Edit the decimal points accepted in the grades of this exam. It must be equal or greater than 0 and equal or smaller than 3."
                            }
                        ],
                        "width": 3,
                        "offset": 0,
                        "push": 0,
                        "pull": 0
                    },
                    {
                        "components": [
                            {
                                "label": "Graded students",
                                "labelPosition": "top",
                                "widget": {
                                    "type": "input"
                                },
                                "validate": {
                                    "required": false
                                },
                                "key": "numberOfGradedStudents",
                                "type": "number",
                                "input": true,
                                "disabled": true,
                                "description": "Edit the number of students that were graded. This should be equal or smaller than the number of students that took the exam."
                            }
                        ],
                        "width": 3,
                        "offset": 0,
                        "push": 0,
                        "pull": 0
                    }
                ],
                "customClass": "text-dark",
                "hideLabel": true,
                "type": "columns",
                "input": false
              },
              {
                "columns": [
                    {
                        "components": [
                            {
                              "label": "Notes",
                              "labelPosition": "top",
                              "widget": {
                                  "type": "input"
                              },
                              "validate": {
                                  "required": false
                              },
                              "key": "notes",
                              "type": "textarea",
                              "input": true
                            }
                        ],
                        "width": 12,
                        "offset": 0,
                        "push": 0,
                        "pull": 0
                    }
                ],
                "customClass": "text-dark",
                "hideLabel": true,
                "type": "columns",
                "input": false
              }
            ]
        },
      {
        "columns": [
          {
            "components": [
              {
                "type": "button",
                "label": "Submit",
                "key": "submit",
                "disableOnInvalid": true,
                "input": true
              }
            ],
            "width": 6
          },
          {
            "components": [
              {
                "input": true,
                "label": "Cancel",
                "tableView": false,
                "key": "cancel",
                "action": "event",
                "disableOnInvalid": false,
                "theme": "secondary",
                "type": "button",
                "event": "cancelEvent",
                "customClass": "pull-right float-right mr-0"
              }
            ],
            "width": 6
          }
        ],
        "type": "columns"
      }
    ]
}
