{
  "model": "CourseExamInstructors",
  "title": "instructor exams",
  "searchExpression": "indexof(courseExam/name, '${text}') ge 0 or indexof(courseExam/course/displayCode, '${text}') ge 0 or indexof(courseExam/examPeriod/locale/name, '${text}') ge 0 )",
  "columns": [
    {
      "name": "courseExam/course/displayCode",
      "property": "displayCode",
      "title": "Classes.DisplayCode"
    },
    {
      "name": "courseExam/name",
      "property": "title",
      "title": "Exams.ExamName"
    },
    {
      "name": "courseExam/examPeriod/locale/name",
      "property": "examPeriod",
      "title": "Exams.Period"
    },
    {
      "name": "courseExam/year/alternateName",
      "property": "year",
      "title": "Exams.Year"
    },
    {
      "name": "courseExam/numberOfGradedStudents",
      "property": "numberOfGradedStudents",
      "title": "Exams.NumberOfGradedStudents"
    },
    {
      "name": "courseExam/status/alternateName",
      "property": "status",
      "title": "Exams.Status",
      "formatter": "TranslationFormatter",
      "formatString": "ExamStatus.${value.toLowerCase()}"
    },
    {
      "name": "courseExam/dateCompleted",
      "property": "dateCompleted",
      "title": "Exams.DateCompleted",
      "formatter": "DateTimeFormatter",
      "formatString": "shortDate"
    },
    {
      "name":"courseExam/id",
      "property": "id",
      "formatter": "ButtonFormatter",
      "formatString": "#/exams/${id}/dashboard/general",
      "className": "text-center",
      "formatOptions": {
        "buttonContent": "<i class=\"far fa-eye text-indigo\"></i>",
        "buttonClass": "btn btn-default"
      }
    }
  ],
  "searches": [],
  "defaults":{
  },
  "criteria": [
    {
      "name": "examName",
      "filter": "(indexof(courseExam/name, '${value}') ge 0)",
      "type": "text"
    },
    {
      "name": "displayCode",
      "filter": "(courseExam/course/displayCode eq '${value}')",
      "type": "text"
    },
    {
      "name": "status",
      "filter": "(courseExam/status/name eq '${value}')",
      "type": "text"
    },
    {
      "name": "academicYear",
      "filter": "(courseExam/year/alternateName eq '${value}')",
      "type": "text"
    },
    {
      "name": "examPeriod",
      "filter": "(courseExam/examPeriod/name eq '${value}')",
      "type": "text"
    },
    {
      "name": "instructorID",
      "filter": "(instructor eq '${value}')",
      "type": "text"
    }
  ]
}
